<?xml version="1.0" encoding="UTF-8" standalone="no"?>
<!-- Created with Inkscape (http://www.inkscape.org/) -->

<svg
   xmlns:dc="http://purl.org/dc/elements/1.1/"
   xmlns:cc="http://creativecommons.org/ns#"
   xmlns:rdf="http://www.w3.org/1999/02/22-rdf-syntax-ns#"
   xmlns:svg="http://www.w3.org/2000/svg"
   xmlns="http://www.w3.org/2000/svg"
   xmlns:sodipodi="http://sodipodi.sourceforge.net/DTD/sodipodi-0.dtd"
   xmlns:inkscape="http://www.inkscape.org/namespaces/inkscape"
   width="256"
   height="64"
   viewBox="0 0 67.733331 16.933333"
   version="1.1"
   id="svg5352"
   inkscape:export-filename="C:\Users\frank\unity-projects\TFG-Impulsividad\Assets\Textures\IU\ui-red-combined-button.png"
   inkscape:export-xdpi="96"
   inkscape:export-ydpi="96"
   inkscape:version="0.92.4 (5da689c313, 2019-01-14)"
   sodipodi:docname="ui-button.svg">
  <defs
     id="defs5346" />
  <sodipodi:namedview
     id="base"
     pagecolor="#ffffff"
     bordercolor="#666666"
     borderopacity="1.0"
     inkscape:pageopacity="0.0"
     inkscape:pageshadow="2"
     inkscape:zoom="3.959798"
     inkscape:cx="95.299807"
     inkscape:cy="77.35552"
     inkscape:document-units="px"
     inkscape:current-layer="layer1"
     showgrid="true"
     units="px"
     inkscape:window-width="1920"
     inkscape:window-height="1017"
     inkscape:window-x="-8"
     inkscape:window-y="-8"
     inkscape:window-maximized="1">
    <inkscape:grid
       type="xygrid"
       id="grid5897"
       spacingx="0.26458333"
       spacingy="0.26458333"
       empspacing="5"
       originx="0.52916665"
       originy="0.52916665"
       dotted="false" />
  </sodipodi:namedview>
  <metadata
     id="metadata5349">
    <rdf:RDF>
      <cc:Work
         rdf:about="">
        <dc:format>image/svg+xml</dc:format>
        <dc:type
           rdf:resource="http://purl.org/dc/dcmitype/StillImage" />
        <dc:title></dc:title>
      </cc:Work>
    </rdf:RDF>
  </metadata>
  <g
     inkscape:label="Layer 1"
     inkscape:groupmode="layer"
     id="layer1"
     transform="translate(0,-280.06667)">
    <rect
       style="opacity:0.92000002;fill:#ad1713;fill-opacity:0.95555556;fill-rule:nonzero;stroke:none;stroke-width:0.56549674;stroke-miterlimit:4;stroke-dasharray:none;stroke-opacity:1"
       id="rect5899-7"
       width="65.499519"
       height="12.907509"
       x="-15.915245"
       y="283.91833"
       ry="6.4537544"
       rx="2.7872179"
       transform="matrix(0.9978129,-0.06610149,0.06240052,0.99805119,0,0)"
       inkscape:export-xdpi="96"
       inkscape:export-ydpi="96" />
    <rect
       style="opacity:1;fill:#cccccc;fill-opacity:0.6;fill-rule:nonzero;stroke:#f00e06;stroke-width:0.56549478;stroke-miterlimit:4;stroke-dasharray:none;stroke-opacity:0.95686275"
       id="rect5899"
       width="65.491478"
       height="12.909005"
       x="0.77789402"
       y="282.23892"
       ry="6.4545026"
       rx="2.7868757"
       inkscape:export-xdpi="96"
       inkscape:export-ydpi="96" />
  </g>
</svg>
