%YAML 1.1
%TAG !u! tag:unity3d.com,2011:
--- !u!1045 &1
EditorBuildSettings:
  m_ObjectHideFlags: 0
  serializedVersion: 2
  m_Scenes:
  - enabled: 1
    path: Assets/Scenes/Menu.unity
    guid: 4786e037aa7c5db4593c574aa2f1b567
  - enabled: 1
    path: Assets/Scenes/StartStopTrial.unity
    guid: 0cd143cdb7ac1994cb405c102d84e6ba
  - enabled: 1
    path: Assets/Scenes/TrackDrivingTrial.unity
    guid: 467cca9a4ac573746b845ac418b8429b
  m_configObjects: {}
