{
    "name": "Plugin.ER3D",
    "references": [],
    "optionalUnityReferences": [],
    "includePlatforms": [],
    "excludePlatforms": [],
    "allowUnsafeCode": false,
    "overrideReferences": true,
    "precompiledReferences": [
        "DelaunayER.dll",
        "EasyRoads3Dv3.dll",
        "EasyRoads3Dv3Editor.dll"
    ],
    "autoReferenced": false,
    "defineConstraints": [],
    "versionDefines": []
}